\relax 
\citation{Turchin2003}
\newlabel{eq:toxicRodent}{{8}{3}}
\newlabel{eq:rodentPoisson}{{10}{3}}
\newlabel{eq:rodentMU}{{11}{3}}
\newlabel{eq:genLogistic}{{17}{4}}
\newlabel{eq:stoatMU}{{25}{5}}
\newlabel{eq:kiwiMU}{{33}{7}}
\bibdata{/home/dean/AA_Mega_Local/BibTeXLibrary/DeanBibTeX.bib}
\bibcite{Turchin2003}{{1}{2003}{{Turchin}}{{}}}
\bibstyle{/home/dean/AA_Mega_Local/BibTeXLibrary/ecology.bst}
